{"meta": {"limit": 3, "next": "/api/v1/doc/document/?format=json&title__icontains=json&type=rfc&limit=3&offset=3", "offset": 0, "previous": null, "total_count": 56}, "objects": [{"abstract": "This document specifies a data model for sharing data between users using the JSON Meta Application Protocol (JMAP).  Future documents can reference this document when defining data types to support a consistent model of sharing.", "ad": "/api/v1/person/person/106842/", "expires": null, "external_url": "", "group": "/api/v1/group/group/2176/", "id": 141864, "intended_std_level": null, "keywords": "[]", "name": "rfc9670", "note": "", "notify": "", "pages": 17, "resource_uri": "/api/v1/doc/document/rfc9670/", "rev": "", "rfc": "9670", "rfc_number": 9670, "shepherd": null, "states": ["/api/v1/doc/state/177/"], "std_level": "/api/v1/name/stdlevelname/ps/", "stream": "/api/v1/name/streamname/ietf/", "submissions": [], "tags": [], "time": "2024-11-19T22:46:33Z", "title": "JSON Meta Application Protocol (JMAP) Sharing", "type": "/api/v1/name/doctypename/rfc/", "uploaded_filename": "", "words": null}, {"abstract": "This document specifies a data model for synchronising contact data with a server using the JSON Meta Application Protocol (JMAP).", "ad": "/api/v1/person/person/106842/", "expires": null, "external_url": "", "group": "/api/v1/group/group/2176/", "id": 142380, "intended_std_level": null, "keywords": "[]", "name": "rfc9610", "note": "", "notify": "", "pages": 17, "resource_uri": "/api/v1/doc/document/rfc9610/", "rev": "", "rfc": "9610", "rfc_number": 9610, "shepherd": null, "states": ["/api/v1/doc/state/177/"], "std_level": "/api/v1/name/stdlevelname/ps/", "stream": "/api/v1/name/streamname/ietf/", "submissions": [], "tags": [], "time": "2024-12-19T00:45:16Z", "title": "JSON Meta Application Protocol (JMAP) for Contacts", "type": "/api/v1/name/doctypename/rfc/", "uploaded_filename": "", "words": null}, {"abstract": "This specification proposes an additional response secured by JSON Web Token (JWT) for OAuth 2.0 Token Introspection.", "ad": "/api/v1/person/person/105815/", "expires": null, "external_url": "", "group": "/api/v1/group/group/1748/", "id": 142820, "intended_std_level": null, "keywords": "[]", "name": "rfc9701", "note": "", "notify": "", "pages": 13, "resource_uri": "/api/v1/doc/document/rfc9701/", "rev": "", "rfc": "9701", "rfc_number": 9701, "shepherd": null, "states": ["/api/v1/doc/state/177/"], "std_level": "/api/v1/name/stdlevelname/ps/", "stream": "/api/v1/name/streamname/ietf/", "submissions": [], "tags": [], "time": "2025-01-30T23:30:18Z", "title": "JSON Web Token (JWT) Response for OAuth Token Introspection", "type": "/api/v1/name/doctypename/rfc/", "uploaded_filename": "", "words": null}]}